{
    "DNDConfig": null,
    "_height_": {
        "type": "string",
        "value": "100dp"
    },
    "_left_": {
        "type": "string",
        "value": "0dp"
    },
    "_margin_": [
        0,
        0,
        0,
        0
    ],
    "_orientation_": 6,
    "_padding_": [
        0,
        0,
        0,
        0
    ],
    "_percent_": true,
    "_skin_": "s70f06b733cf498a9d3928984541eb39",
    "_top_": {
        "type": "string",
        "value": "0dp"
    },
    "_width_": {
        "type": "string",
        "value": "100%"
    },
    "allboxes": [],
    "autogrowmode": 0,
    "canUpdateUI": true,
    "children": [
        "pkgImg",
        "pkgTitle",
        "pkgDesc",
        "pkgDate"
    ],
    "clipbounds": false,
    "containerId": true,
    "containerweight": 100,
    "controllerInfo": {
        "default": {
            "channel": "mobile",
            "name": "flxMainContainerController"
        }
    },
    "defaultunit": 3,
    "enablescrolling": true,
    "id": "flxMainContainer",
    "ide_onClick": "AS_FlexContainer_fadde76d1346459999c1f9316521f053",
    "info": null,
    "isTemplate": true,
    "iscustomlayout": false,
    "isvisible": true,
    "kuid": "c5a33fe32b09449aac1075a87eaa1833",
    "layouttype": 2,
    "name": "kony.ui.FlexContainer",
    "parent": "pkgRow",
    "pf": "pkgRow",
    "retaincontentalignment": false,
    "retainflexpositionproperties": false,
    "retainflowhorizontalalignment": false,
    "snapgridsize": 10,
    "snaptogrid": true,
    "wType": "FlexContainer",
    "widgetalignment": 2
}