{
    "@class": "com.kony.gen.viz.model.component.KVizButton",
    "DNDConfig": null,
    "__parentReadjusting__": false,
    "_height_": {
        "type": "string",
        "value": "100%"
    },
    "_left_": {
        "type": "string",
        "value": "-0.07%"
    },
    "_margin_": [
        6,
        6,
        6,
        6
    ],
    "_padding_": [
        27,
        2,
        0,
        0
    ],
    "_skin_": "s8f2a5650c404528ad9d5ce068a7bc45",
    "_text_": "",
    "_top_": {
        "type": "string",
        "value": "0.46%"
    },
    "_width_": {
        "type": "string",
        "value": "10.67%"
    },
    "android": {
        "displayText": false
    },
    "canUpdateUI": true,
    "containerweight": 100,
    "contentalignment": 4,
    "displaytext": true,
    "focusskin": "s0696c3010af4a22814c5ede15ab175c",
    "id": "headerButtonLeft",
    "ide_onClick": "AS_Button_d4061f1bbe174a34a22f66ef632da887",
    "info": null,
    "iphone": {
        "padding": [
            27,
            0,
            0,
            0
        ],
        "paddingInPixel": true
    },
    "isvisible": true,
    "kuid": "cae0564b6a164989b0b24bb7d6583655",
    "masterType": 1,
    "name": "kony.ui.Button",
    "paddingLocked": false,
    "paddinginpixel": false,
    "parent": "flxHeaderBack",
    "pf": "frmPackageDetail",
    "wType": "Button",
    "zindex": 1
}