{
  "android": {
    "border_color": {
      "angle": 0,
      "colors": [
        "050505c2",
        "10101275",
        "27272987"
      ],
      "cs": [
        0,
        46,
        94
      ],
      "gradientType": "toTop",
      "gt": "linear"
    },
    "border_style": "plain",
    "border_type": 1,
    "border_width": 0,
    "font_name": "default",
    "isForked": true
  },
  "androidwearos": {
    "border_color": {
      "angle": 0,
      "colors": [
        "050505c2",
        "10101275",
        "27272987"
      ],
      "cs": [
        0,
        46,
        94
      ],
      "gradientType": "toTop",
      "gt": "linear"
    },
    "border_style": "plain",
    "border_type": 1,
    "border_width": 0,
    "font_name": "default",
    "isForked": true
  },
  "background_gradient_bottom_color": "e4e4f0ff",
  "background_gradient_top_color": "fafafaff",
  "background_style": "vg",
  "bg_type": "two",
  "border_color": "000000ff",
  "border_style": "plain",
  "border_type": 0,
  "border_width": 0,
  "delinkedPltfrms": {
    "androidwear": [],
    "desktop": [],
    "mobile": [],
    "tablet": [],
    "watch": []
  },
  "desktopweb": {
    "bottom_left_border_color": "000000ff",
    "bottom_left_border_style": "plain",
    "bottom_left_border_width": 0,
    "bottom_right_border_color": "000000ff",
    "bottom_right_border_style": "plain",
    "bottom_right_border_width": 0,
    "font_name": "Helvetica",
    "isForked": true,
    "shadow": {
      "br": 5,
      "color": "000000ff",
      "inner": false,
      "nm": 0,
      "x": -43,
      "y": -42
    },
    "top_left_border_color": "000000ff",
    "top_left_border_style": "plain",
    "top_left_border_width": 0,
    "top_right_border_color": "000000ff",
    "top_right_border_style": "plain",
    "top_right_border_width": 0
  },
  "ipad": {
    "border_color": {
      "angle": 0,
      "colors": [
        "050505c2",
        "10101275",
        "27272987"
      ],
      "cs": [
        0,
        46,
        94
      ],
      "gradientType": "toTop",
      "gt": "linear"
    },
    "border_style": "plain",
    "border_type": 1,
    "border_width": 0,
    "font_name": "System",
    "isForked": true,
    "shadow": {
      "br": 5,
      "color": "000000ff",
      "inner": false,
      "nm": 0,
      "x": -43,
      "y": -42
    }
  },
  "iphone": {
    "border_color": {
      "angle": 0,
      "colors": [
        "050505c2",
        "10101275",
        "27272987"
      ],
      "cs": [
        0,
        46,
        94
      ],
      "gradientType": "toTop",
      "gt": "linear"
    },
    "border_style": "plain",
    "border_type": 1,
    "border_width": 0,
    "font_name": "System",
    "isForked": true,
    "shadow": {
      "br": 5,
      "color": "000000ff",
      "inner": false,
      "nm": 0,
      "x": -43,
      "y": -42
    }
  },
  "isDefaultSkin": false,
  "kiosk": {
    "border_color": {
      "angle": 0,
      "colors": [
        "050505c2",
        "10101275",
        "27272987"
      ],
      "cs": [
        0,
        46,
        94
      ],
      "gradientType": "toTop",
      "gt": "linear"
    },
    "border_style": "plain",
    "border_type": 1,
    "border_width": 0,
    "font_name": "None",
    "isForked": true
  },
  "kuid": "s3d56b4c4d2b452481bb1ae3852a69ea",
  "spaan": {
    "bottom_left_border_color": "000000ff",
    "bottom_left_border_style": "plain",
    "bottom_left_border_width": 0,
    "bottom_right_border_color": "000000ff",
    "bottom_right_border_style": "plain",
    "bottom_right_border_width": 0,
    "font_name": "Helvetica",
    "isForked": true,
    "shadow": {
      "br": 5,
      "color": "000000ff",
      "inner": false,
      "nm": 0,
      "x": -43,
      "y": -42
    },
    "top_left_border_color": "000000ff",
    "top_left_border_style": "plain",
    "top_left_border_width": 0,
    "top_right_border_color": "000000ff",
    "top_right_border_style": "plain",
    "top_right_border_width": 0
  },
  "spaandroidtablet": {
    "bottom_left_border_color": "000000ff",
    "bottom_left_border_style": "plain",
    "bottom_left_border_width": 0,
    "bottom_right_border_color": "000000ff",
    "bottom_right_border_style": "plain",
    "bottom_right_border_width": 0,
    "font_name": "Helvetica",
    "isForked": true,
    "shadow": {
      "br": 5,
      "color": "000000ff",
      "inner": false,
      "nm": 0,
      "x": -43,
      "y": -42
    },
    "top_left_border_color": "000000ff",
    "top_left_border_style": "plain",
    "top_left_border_width": 0,
    "top_right_border_color": "000000ff",
    "top_right_border_style": "plain",
    "top_right_border_width": 0
  },
  "spabb": {
    "bottom_left_border_color": "000000ff",
    "bottom_left_border_style": "plain",
    "bottom_left_border_width": 0,
    "bottom_right_border_color": "000000ff",
    "bottom_right_border_style": "plain",
    "bottom_right_border_width": 0,
    "font_name": "Helvetica",
    "isForked": true,
    "shadow": {
      "br": 5,
      "color": "000000ff",
      "inner": false,
      "nm": 0,
      "x": -43,
      "y": -42
    },
    "top_left_border_color": "000000ff",
    "top_left_border_style": "plain",
    "top_left_border_width": 0,
    "top_right_border_color": "000000ff",
    "top_right_border_style": "plain",
    "top_right_border_width": 0
  },
  "spaip": {
    "bottom_left_border_color": "000000ff",
    "bottom_left_border_style": "plain",
    "bottom_left_border_width": 0,
    "bottom_right_border_color": "000000ff",
    "bottom_right_border_style": "plain",
    "bottom_right_border_width": 0,
    "font_name": "Helvetica",
    "isForked": true,
    "shadow": {
      "br": 5,
      "color": "000000ff",
      "inner": false,
      "nm": 0,
      "x": -43,
      "y": -42
    },
    "top_left_border_color": "000000ff",
    "top_left_border_style": "plain",
    "top_left_border_width": 0,
    "top_right_border_color": "000000ff",
    "top_right_border_style": "plain",
    "top_right_border_width": 0
  },
  "spaipad": {
    "bottom_left_border_color": "000000ff",
    "bottom_left_border_style": "plain",
    "bottom_left_border_width": 0,
    "bottom_right_border_color": "000000ff",
    "bottom_right_border_style": "plain",
    "bottom_right_border_width": 0,
    "font_name": "Helvetica",
    "isForked": true,
    "shadow": {
      "br": 5,
      "color": "000000ff",
      "inner": false,
      "nm": 0,
      "x": -43,
      "y": -42
    },
    "top_left_border_color": "000000ff",
    "top_left_border_style": "plain",
    "top_left_border_width": 0,
    "top_right_border_color": "000000ff",
    "top_right_border_style": "plain",
    "top_right_border_width": 0
  },
  "spawindowstablet": {
    "bottom_left_border_color": "000000ff",
    "bottom_left_border_style": "plain",
    "bottom_left_border_width": 0,
    "bottom_right_border_color": "000000ff",
    "bottom_right_border_style": "plain",
    "bottom_right_border_width": 0,
    "font_name": "Helvetica",
    "isForked": true,
    "shadow": {
      "br": 5,
      "color": "000000ff",
      "inner": false,
      "nm": 0,
      "x": -43,
      "y": -42
    },
    "top_left_border_color": "000000ff",
    "top_left_border_style": "plain",
    "top_left_border_width": 0,
    "top_right_border_color": "000000ff",
    "top_right_border_style": "plain",
    "top_right_border_width": 0
  },
  "spawinphone8": {
    "bottom_left_border_color": "000000ff",
    "bottom_left_border_style": "plain",
    "bottom_left_border_width": 0,
    "bottom_right_border_color": "000000ff",
    "bottom_right_border_style": "plain",
    "bottom_right_border_width": 0,
    "font_name": "Helvetica",
    "isForked": true,
    "shadow": {
      "br": 5,
      "color": "000000ff",
      "inner": false,
      "nm": 0,
      "x": -43,
      "y": -42
    },
    "top_left_border_color": "000000ff",
    "top_left_border_style": "plain",
    "top_left_border_width": 0,
    "top_right_border_color": "000000ff",
    "top_right_border_style": "plain",
    "top_right_border_width": 0
  },
  "tabrcandroid": {
    "border_color": {
      "angle": 0,
      "colors": [
        "050505c2",
        "10101275",
        "27272987"
      ],
      "cs": [
        0,
        46,
        94
      ],
      "gradientType": "toTop",
      "gt": "linear"
    },
    "border_style": "plain",
    "border_type": 1,
    "border_width": 0,
    "font_name": "default",
    "isForked": true
  },
  "wType": "FlexContainer",
  "watchos": {
    "font_name": "System"
  },
  "windows8": {
    "border_color": {
      "angle": 0,
      "colors": [
        "050505c2",
        "10101275",
        "27272987"
      ],
      "cs": [
        0,
        46,
        94
      ],
      "gradientType": "toTop",
      "gt": "linear"
    },
    "border_style": "plain",
    "border_type": 1,
    "border_width": 0,
    "font_name": "None",
    "isForked": true
  },
  "winphone8": {
    "border_color": {
      "angle": 0,
      "colors": [
        "050505c2",
        "10101275",
        "27272987"
      ],
      "cs": [
        0,
        46,
        94
      ],
      "gradientType": "toTop",
      "gt": "linear"
    },
    "border_style": "plain",
    "border_type": 1,
    "border_width": 0,
    "font_name": "None",
    "isForked": true
  }
}