{
  "android": {
    "font_name": "default",
    "font_size": 175,
    "isForked": false
  },
  "androidwearos": {
    "font_name": "default",
    "font_size": 225,
    "isForked": false
  },
  "background_color": "00000000",
  "bg_type": "one",
  "border_color": "424242ff",
  "border_style": "plain",
  "border_type": 0,
  "border_width": 0,
  "desktopweb": {
    "font_name": "Helvetica",
    "font_size": 394,
    "isForked": false
  },
  "fontSizeInPx": true,
  "font_color": "333333ff",
  "font_name": "iphoneSystem",
  "font_size": 175,
  "font_style": "normal",
  "font_weight": "bold",
  "ipad": {
    "font_name": "System",
    "font_size": 225,
    "isForked": false
  },
  "iphone": {
    "font_name": "System-Bold",
    "font_size": 158,
    "isForked": false
  },
  "isDefaultSkin": false,
  "kiosk": {
    "font_name": "None",
    "font_size": 394,
    "isForked": false
  },
  "kuid": "sccb008bc70d48babd684c4d6633b98a",
  "spaan": {
    "font_name": "Helvetica",
    "font_size": 210,
    "isForked": false
  },
  "spaandroidtablet": {
    "font_name": "Helvetica",
    "font_size": 175,
    "isForked": false
  },
  "spabb": {
    "font_name": "Helvetica",
    "font_size": 263,
    "isForked": false
  },
  "spaip": {
    "font_name": "Helvetica",
    "font_size": 224,
    "isForked": false
  },
  "spaipad": {
    "font_name": "Helvetica",
    "font_size": 185,
    "isForked": false
  },
  "spawindowstablet": {
    "font_name": "Helvetica",
    "font_size": 185,
    "isForked": false
  },
  "spawinphone8": {
    "font_name": "Helvetica",
    "font_size": 263,
    "isForked": false
  },
  "tabrcandroid": {
    "font_name": "default",
    "font_size": 373,
    "isForked": false
  },
  "wType": "Label",
  "watchos": {
    "font_name": "System",
    "font_size": 225,
    "isForked": false
  },
  "windows8": {
    "font_name": "None",
    "font_size": 154,
    "isForked": false
  },
  "winphone8": {
    "font_name": "None",
    "font_size": 210,
    "isForked": false
  }
}