{
  "android": {
    "font_name": "default",
    "font_size": 114,
    "isForked": false
  },
  "androidwearos": {
    "font_name": "default",
    "font_size": 146,
    "isForked": false
  },
  "background_color": "00000000",
  "bg_type": "one",
  "border_color": "424242ff",
  "border_style": "plain",
  "border_type": 0,
  "border_width": 0,
  "desktopweb": {
    "font_name": "Helvetica",
    "font_size": 256,
    "isForked": false
  },
  "fontSizeInPx": true,
  "font_color": "333333ff",
  "font_name": "iphoneSystem",
  "font_size": 103,
  "font_style": "normal",
  "font_weight": "normal",
  "ipad": {
    "font_name": "System",
    "font_size": 146,
    "isForked": false
  },
  "iphone": {
    "font_name": "Arial",
    "font_size": 103,
    "isForked": false
  },
  "isDefaultSkin": false,
  "kiosk": {
    "font_name": "None",
    "font_size": 256,
    "isForked": false
  },
  "kuid": "se72c7a736554f07bf9b48738990e0ad",
  "spaan": {
    "font_name": "Helvetica",
    "font_size": 91,
    "isForked": false
  },
  "spaandroidtablet": {
    "font_name": "Helvetica",
    "font_size": 76,
    "isForked": false
  },
  "spabb": {
    "font_name": "Helvetica",
    "font_size": 114,
    "isForked": false
  },
  "spaip": {
    "font_name": "Helvetica",
    "font_size": 97,
    "isForked": false
  },
  "spaipad": {
    "font_name": "Helvetica",
    "font_size": 80,
    "isForked": false
  },
  "spawindowstablet": {
    "font_name": "Helvetica",
    "font_size": 80,
    "isForked": false
  },
  "spawinphone8": {
    "font_name": "Helvetica",
    "font_size": 114,
    "isForked": false
  },
  "tabrcandroid": {
    "font_name": "default",
    "font_size": 243,
    "isForked": false
  },
  "wType": "Label",
  "watchos": {
    "font_name": "System",
    "font_size": 146,
    "isForked": false
  },
  "windows8": {
    "font_name": "None",
    "font_size": 100,
    "isForked": false
  },
  "winphone8": {
    "font_name": "None",
    "font_size": 137,
    "isForked": false
  }
}