{
  "android": {
    "font_name": "default",
    "font_size": 128,
    "isForked": false
  },
  "androidwearos": {
    "font_name": "default",
    "font_size": 164,
    "isForked": false
  },
  "background_color": "00000000",
  "bg_type": "one",
  "border_color": "424242ff",
  "border_style": "plain",
  "border_type": 0,
  "border_width": 0,
  "desktopweb": {
    "font_name": "Helvetica",
    "font_size": 288,
    "isForked": false
  },
  "fontSizeInPx": true,
  "font_color": "333333b2",
  "font_name": "iphoneSystem",
  "font_size": 115,
  "font_style": "normal",
  "font_weight": "normal",
  "ipad": {
    "font_name": "System",
    "font_size": 164,
    "isForked": false
  },
  "iphone": {
    "font_name": "System",
    "font_size": 115,
    "isForked": false
  },
  "isDefaultSkin": false,
  "kiosk": {
    "font_name": "None",
    "font_size": 288,
    "isForked": false
  },
  "kuid": "sff34ae129234e1e81a075cc6f4a0f83",
  "spaan": {
    "font_name": "Helvetica",
    "font_size": 102,
    "isForked": false
  },
  "spaandroidtablet": {
    "font_name": "Helvetica",
    "font_size": 85,
    "isForked": false
  },
  "spabb": {
    "font_name": "Helvetica",
    "font_size": 128,
    "isForked": false
  },
  "spaip": {
    "font_name": "Helvetica",
    "font_size": 109,
    "isForked": false
  },
  "spaipad": {
    "font_name": "Helvetica",
    "font_size": 90,
    "isForked": false
  },
  "spawindowstablet": {
    "font_name": "Helvetica",
    "font_size": 90,
    "isForked": false
  },
  "spawinphone8": {
    "font_name": "Helvetica",
    "font_size": 128,
    "isForked": false
  },
  "tabrcandroid": {
    "font_name": "default",
    "font_size": 273,
    "isForked": false
  },
  "wType": "Label",
  "watchos": {
    "font_name": "System",
    "font_size": 164,
    "isForked": false
  },
  "windows8": {
    "font_name": "None",
    "font_size": 112,
    "isForked": false
  },
  "winphone8": {
    "font_name": "None",
    "font_size": 153,
    "isForked": false
  }
}