{
    "AS_Button_f80d96ac0fa44816ab10c3626a0a8d9b": {
        "id": "AS_Button_f80d96ac0fa44816ab10c3626a0a8d9b",
        "type": "ACTION_SEQUENCE",
        "params": [{
            "datatype": "collection",
            "name": "eventobject"
        }],
        "contextObj": {
            "name": "uwu5f12c7cf203471089a5385186c82042",
            "type": "userwidgets",
            "KUID": "u5f12c7cf203471089a5385186c82042"
        },
        "language": "js",
        "actions": [{
            "id": "SET_FORM_WIDGET_PROPERTY____b6070e0a1fdb4591bd5ba2e042999b3d",
            "type": "SET_WIDGET_PROPERTY",
            "itemType": "COMPONENT",
            "itemId": "courierapp.MainHeader",
            "widgetId": "lblOficinas",
            "propertyName": "skin",
            "propertyValue": "sknlblNormal",
            "itemKUID": "u5f12c7cf203471089a5385186c82042",
            "widgetKUID": "cbee14ee9d664f92a38ad4c6ed88f2eb",
            "skinKUID": "se72c7a736554f07bf9b48738990e0ad",
            "isSkinProperty": true,
            "wType": "Label",
            "currentTheme": "defaultTheme",
            "forkedPlatform": "all",
            "parentId": null,
            "callbackType": null,
            "widgetPath": "this.view.lblOficinas"
        }, {
            "id": "SET_FORM_WIDGET_PROPERTY____g68942353fd04bb0a9dde312fac7e86e",
            "type": "SET_WIDGET_PROPERTY",
            "itemType": "COMPONENT",
            "itemId": "courierapp.MainHeader",
            "widgetId": "lblUsuario",
            "propertyName": "skin",
            "propertyValue": "sknlblNormal",
            "itemKUID": "u5f12c7cf203471089a5385186c82042",
            "widgetKUID": "ac848fbe6d054daaa1f563d81adec3bc",
            "skinKUID": "se72c7a736554f07bf9b48738990e0ad",
            "isSkinProperty": true,
            "wType": "Label",
            "currentTheme": "defaultTheme",
            "forkedPlatform": "all",
            "parentId": null,
            "callbackType": null,
            "widgetPath": "this.view.lblUsuario"
        }, {
            "id": "SET_FORM_WIDGET_PROPERTY____bd32dd6b041943e5b6c04798dd8c0956",
            "type": "SET_WIDGET_PROPERTY",
            "itemType": "COMPONENT",
            "itemId": "courierapp.MainHeader",
            "widgetId": "lblPkg",
            "propertyName": "skin",
            "propertyValue": "sknlblFocus",
            "itemKUID": "u5f12c7cf203471089a5385186c82042",
            "widgetKUID": "hf301607d030414897229e46ca77ce8d",
            "skinKUID": "s08e87855f434df598e2b048c41238cf",
            "isSkinProperty": true,
            "wType": "Label",
            "currentTheme": "defaultTheme",
            "forkedPlatform": "all",
            "parentId": null,
            "callbackType": null,
            "widgetPath": "this.view.lblPkg"
        }, {
            "id": "SET_FORM_WIDGET_PROPERTY_Untitled___f078eadef0e045bc83180770c8b64511",
            "type": "SET_WIDGET_PROPERTY",
            "itemType": "COMPONENT",
            "itemId": "courierapp.MainHeader",
            "widgetId": "imgPkg",
            "propertyName": "src",
            "propertyValue": "package_selected.png",
            "itemKUID": "u5f12c7cf203471089a5385186c82042",
            "widgetKUID": "f68705ab4b37478687ed91ee107ff20c",
            "isSkinProperty": false,
            "wType": "Image",
            "forkedPlatform": "all",
            "parentId": null,
            "callbackType": null,
            "widgetPath": "this.view.imgPkg"
        }, {
            "id": "SET_FORM_WIDGET_PROPERTY_Untitled___bc4af48151534bb0aaa298fe1a523002",
            "type": "SET_WIDGET_PROPERTY",
            "itemType": "COMPONENT",
            "itemId": "courierapp.MainHeader",
            "widgetId": "imgOficinas",
            "propertyName": "src",
            "propertyValue": "office_normal.png",
            "itemKUID": "u5f12c7cf203471089a5385186c82042",
            "widgetKUID": "cd6356c9451d4cdd979d8a13d7c83be2",
            "isSkinProperty": false,
            "wType": "Image",
            "forkedPlatform": "all",
            "parentId": null,
            "callbackType": null,
            "widgetPath": "this.view.imgOficinas"
        }, {
            "id": "SET_FORM_WIDGET_PROPERTY_Untitled___b2f421b9aa9b43038b3e46471425282b",
            "type": "SET_WIDGET_PROPERTY",
            "itemType": "COMPONENT",
            "itemId": "courierapp.MainHeader",
            "widgetId": "imgUsuario",
            "propertyName": "src",
            "propertyValue": "option3.png",
            "itemKUID": "u5f12c7cf203471089a5385186c82042",
            "widgetKUID": "i7bbf4c6ac204584be66b4e39e49c291",
            "isSkinProperty": false,
            "wType": "Image",
            "forkedPlatform": "all",
            "parentId": null,
            "callbackType": null,
            "widgetPath": "this.view.imgUsuario"
        }]
    }
}