{
    "DNDConfig": null,
    "__parentReadjusting__": false,
    "_height_": {
        "type": "string",
        "value": "1%"
    },
    "_left_": {
        "type": "string",
        "value": "8.20%"
    },
    "_margin_": [
        0,
        0,
        0,
        0
    ],
    "_orientation_": 6,
    "_padding_": [
        0,
        0,
        0,
        0
    ],
    "_percent_": true,
    "_skin_": "se3c0b018894434eb75c71c8c4d43d42",
    "_top_": {
        "type": "string",
        "value": "67.59%"
    },
    "_width_": {
        "type": "string",
        "value": "86.20%"
    },
    "allboxes": [],
    "autogrowmode": 0,
    "canUpdateUI": true,
    "children": [],
    "clipbounds": true,
    "containerweight": 100,
    "enablescrolling": true,
    "id": "shadowPassword",
    "info": null,
    "iscustomlayout": false,
    "isvisible": true,
    "kuid": "h7a788f89443424f8a0aae7d2f476fbf",
    "layouttype": 2,
    "name": "kony.ui.FlexContainer",
    "parent": "flxForms",
    "pf": "frmLogin",
    "retaincontentalignment": false,
    "retainflexpositionproperties": false,
    "retainflowhorizontalalignment": false,
    "snapgridsize": 10,
    "snaptogrid": true,
    "wType": "FlexContainer",
    "widgetalignment": 1,
    "zindex": 1
}