{
    "DNDConfig": null,
    "__parentReadjusting__": false,
    "_height_": {
        "type": "string",
        "value": "8%"
    },
    "_left_": {
        "type": "string",
        "value": "-1%"
    },
    "_margin_": [
        0,
        0,
        0,
        0
    ],
    "_orientation_": 6,
    "_padding_": [
        0,
        0,
        0,
        0
    ],
    "_percent_": true,
    "_skin_": "s787f076f9b94aa986757584157db14d",
    "_width_": {
        "type": "string",
        "value": "102%"
    },
    "allboxes": [],
    "autogrowmode": 0,
    "canUpdateUI": true,
    "children": [
        "lblEmailHeader",
        "lblEmailData",
        "lineEmail"
    ],
    "clipbounds": true,
    "containerweight": 100,
    "enablescrolling": true,
    "id": "flxEmail",
    "info": null,
    "iscustomlayout": false,
    "isvisible": true,
    "kuid": "c96c07cfb22549ac9d21e105b4d271df",
    "layouttype": 4,
    "name": "kony.ui.FlexContainer",
    "parent": "flxOfficeDetails",
    "pf": "frmOfficeDetails",
    "retaincontentalignment": false,
    "retainflexpositionproperties": false,
    "retainflowhorizontalalignment": false,
    "snapgridsize": 10,
    "snaptogrid": true,
    "wType": "FlexContainer",
    "widgetalignment": 1,
    "zindex": 1
}