{
    "DNDConfig": null,
    "__parentReadjusting__": false,
    "_height_": {
        "type": "string",
        "value": "100.00%"
    },
    "_left_": {
        "type": "string",
        "value": "0.01%"
    },
    "_margin_": [
        0,
        0,
        0,
        0
    ],
    "_orientation_": 6,
    "_padding_": [
        0,
        0,
        0,
        0
    ],
    "_percent_": true,
    "_skin_": "sd3747c0fcf3455e8974992378181daa",
    "_top_": {
        "type": "string",
        "value": "0dp"
    },
    "_width_": {
        "type": "string",
        "value": "100%"
    },
    "allboxes": [],
    "autogrowmode": 0,
    "canUpdateUI": true,
    "children": [
        "flxHeaderBack",
        "flxOffice",
        "flxMap",
        "flxPhone",
        "flxAddress",
        "flxSchedule",
        "flxEmail"
    ],
    "clipbounds": true,
    "containerweight": 100,
    "enablescrolling": true,
    "id": "flxOfficeDetails",
    "info": null,
    "iscustomlayout": false,
    "isvisible": true,
    "kuid": "ef930340018f4562ae5d6ca7338a1237",
    "layouttype": 4,
    "name": "kony.ui.FlexContainer",
    "parent": "frmOfficeDetails",
    "pf": "frmOfficeDetails",
    "retaincontentalignment": false,
    "retainflexpositionproperties": false,
    "retainflowhorizontalalignment": false,
    "snapgridsize": 10,
    "snaptogrid": true,
    "wType": "FlexContainer",
    "widgetalignment": 1,
    "zindex": 1
}