{
    "@class": "com.kony.gen.viz.model.component.KVizLabel",
    "DNDConfig": null,
    "__parentReadjusting__": false,
    "_height_": {
        "type": "string",
        "value": "98.75%"
    },
    "_left_": {
        "type": "string",
        "value": "1.21%"
    },
    "_margin_": [
        0,
        0,
        0,
        0
    ],
    "_padding_": [
        0,
        0,
        0,
        0
    ],
    "_skin_": "sc87ca809c54446fa437a578b16cac20",
    "_text_": "",
    "_top_": {
        "type": "string",
        "value": "0.69%"
    },
    "_width_": {
        "type": "ref",
        "value": "preferred"
    },
    "_wrapping_": 2,
    "android": {
        "textStyle": {
            "letterSpacing": 0,
            "strikeThrough": false
        }
    },
    "canUpdateUI": true,
    "containerweight": 100,
    "contentalignment": 4,
    "id": "headerIconLeft",
    "info": null,
    "ipad": {
        "psp": {
            "wrapping": 2
        }
    },
    "iphone": {
        "psp": {
            "wrapping": 2
        }
    },
    "isvisible": true,
    "kuid": "jbb71ed2b6fd462db3da3901fed0ef38",
    "masterType": 1,
    "name": "kony.ui.Label",
    "paddinginpixel": false,
    "parent": "flxHeaderBack",
    "pf": "frmOfficeDetails",
    "textstyle": {},
    "tooltip": "",
    "wType": "Label",
    "zindex": 1
}