{
    "AS_Form_d4b506d02bf74c24a6fe8b880b38da20": {
        "id": "AS_Form_d4b506d02bf74c24a6fe8b880b38da20",
        "type": "ACTION_SEQUENCE",
        "params": [{
            "datatype": "collection",
            "name": "eventobject"
        }],
        "contextObj": {
            "name": "frmPackages",
            "type": "forms",
            "platform": "",
            "KUID": "eca4d8a259c043be8cfd72425838c73f"
        },
        "language": "js",
        "actions": [{
            "id": "ADD_SNIPPET__e96b6e3819bb499f90848705a6f3ea29",
            "type": "ADD_SNIPPET",
            "codeSnippet": "kony.print(\"Clicked Back\");",
            "parentId": null,
            "callbackType": null
        }]
    }
}