{
    "AS_Form_g1e72d74859e43ad9dfd7ba5ed049613": {
        "id": "AS_Form_g1e72d74859e43ad9dfd7ba5ed049613",
        "type": "ACTION_SEQUENCE",
        "params": [{
            "datatype": "collection",
            "name": "eventobject"
        }],
        "contextObj": {
            "name": "frmPreferences",
            "type": "forms",
            "platform": "",
            "KUID": "e46891af4eeb4791b9714920947bd6d5"
        },
        "language": "js",
        "actions": []
    }
}