{
    "AS_FlexContainer_c56616a0cd7e4c8eb8b8a7dbb02fdd6b": {
        "id": "AS_FlexContainer_c56616a0cd7e4c8eb8b8a7dbb02fdd6b",
        "type": "ACTION_SEQUENCE",
        "params": [{
            "datatype": "collection",
            "name": "eventobject"
        }],
        "language": "js",
        "actions": [{
            "id": "___ide_onClick_i42edfcdd7b947099aa6bdadc1067896",
            "type": "MOVE_ACTION",
            "itemType": "FORM",
            "itemId": "frmPackageDetail",
            "widgetId": "flxDetails",
            "itemKUID": "e65c1be481aa4bd1a1febb589c3073ea",
            "widgetKUID": "fa818e5b56ef41019be22da72530cd45",
            "wType": "FlexContainer",
            "animationObject": {
                "left": "100%",
                "anchorPoint": {},
                "stepConfig": {
                    "timingFunction": "kony.anim.EASE"
                }
            },
            "config": {
                "delay": "0",
                "iterationCount": 1,
                "fillMode": "kony.anim.FILL_MODE_FORWARDS",
                "duration": "250"
            },
            "start": "Immediately",
            "animationId": "MOVE_ACTION____ec6292ee1b5746dc975771e9143efff1",
            "displayAnimationId": "MOVE_ACTION____ec6292ee1b5746dc975771e9143efff1",
            "forkedPlatform": "all",
            "callbackType": null,
            "widgetPath": "this.view.flxDetails"
        }]
    }
}