{
    "AS_Segment_f7655f4c01ef47d3b19c48da04977325": {
        "id": "AS_Segment_f7655f4c01ef47d3b19c48da04977325",
        "type": "ACTION_SEQUENCE",
        "params": [{
            "datatype": "collection",
            "name": "eventobject"
        }, {
            "datatype": "number",
            "name": "sectionNumber"
        }, {
            "datatype": "number",
            "name": "rowNumber"
        }],
        "contextObj": {
            "name": "frmOffices",
            "type": "forms",
            "platform": "",
            "KUID": "e448630ac7a745e38efe8847e90ba289"
        },
        "language": "js",
        "actions": [{
            "id": "ADD_SNIPPET__fd784825ed06463eb2287c15d06fc831",
            "type": "ADD_SNIPPET",
            "codeSnippet": "\nfor (var i=0; i<this.view.segOfficesData.selectedRowItems.length; i++){\n  \n officeDataSelected = this.view.segOfficesData.selectedRowItems[i]; \n  \nvar ntf = new kony.mvc.Navigation(\"frmOfficeDetails\");\nntf.navigate(officeDataSelected);\n}\n",
            "parentId": null,
            "callbackType": null
        }]
    }
}