{
    "p2kwiet1361390939_btnAdd_h72b2002c16c4ff48ec4355714a60e03": {
        "id": "p2kwiet1361390939_btnAdd_h72b2002c16c4ff48ec4355714a60e03",
        "type": "ACTION_SEQUENCE",
        "params": [{
            "name": "eventobject",
            "value": "eventobject"
        }],
        "language": "js",
        "actions": [{
            "id": "customcode_onClick_736651361390939685",
            "type": "INVOKE_FUNCTION",
            "sequenceKUID": "addsegRow",
            "display": "addsegRow",
            "inputparams": [],
            "source": "module"
        }]
    }
}