{
    "DNDConfig": null,
    "__parentReadjusting__": false,
    "_height_": {
        "type": "string",
        "value": "13%"
    },
    "_left_": {
        "type": "string",
        "value": "0dp"
    },
    "_margin_": [
        0,
        0,
        0,
        0
    ],
    "_orientation_": 6,
    "_padding_": [
        0,
        0,
        0,
        0
    ],
    "_percent_": true,
    "_skin_": "s261f769af3e42c4b571372fe14ad99f",
    "_top_": {
        "type": "string",
        "value": "66.76%"
    },
    "_width_": {
        "type": "string",
        "value": "100%"
    },
    "allboxes": [],
    "autogrowmode": 0,
    "canUpdateUI": true,
    "children": [
        "lvldsgHeader",
        "lbldsgName",
        "flxLineDesigner"
    ],
    "clipbounds": true,
    "containerweight": 100,
    "enablescrolling": true,
    "id": "flxDesigner",
    "info": null,
    "iscustomlayout": false,
    "isvisible": true,
    "kuid": "c57da1e4c3bd4e048e71ddccb5b96729",
    "layouttype": 2,
    "name": "kony.ui.FlexContainer",
    "parent": "flxSettingsData",
    "pf": "frmPreferences",
    "retaincontentalignment": false,
    "retainflexpositionproperties": false,
    "retainflowhorizontalalignment": false,
    "snapgridsize": 10,
    "snaptogrid": true,
    "wType": "FlexContainer",
    "widgetalignment": 1,
    "zindex": 1
}